1144	Donald	Williams	4114.26
1892	Bruce	Gold	719.32
2843	Mark	Wilson	7217.23
3165	Mary	Smith	918.26
3924	Simon	Becker	20000.0
5290	George	Truman	16110.68
6023	John	Edgar	9.65
6274	John	Johnson	315.56
8337	Debra	Douglas	127.26
8529	Ellen	Fairchild	86.77
9523	John	Carlson	1496.24
